<svg xmlns="http://www.w3.org/2000/svg" width="18.29" height="22.078" viewBox="0 0 18.29 22.078">
  <path id="angle-double-right-solid_1_" data-name="angle-double-right-solid (1)" d="M35.8,106.067l-7.533,7.771a1.3,1.3,0,0,1-1.878,0l-1.252-1.291a1.4,1.4,0,0,1,0-1.937L30.48,105.1,25.14,99.593a1.4,1.4,0,0,1,0-1.937l1.246-1.3a1.3,1.3,0,0,1,1.878,0l7.533,7.771A1.4,1.4,0,0,1,35.8,106.067Zm10.635-1.943L38.9,96.353a1.3,1.3,0,0,0-1.878,0l-1.252,1.291a1.4,1.4,0,0,0,0,1.937l5.339,5.508L35.775,110.6a1.4,1.4,0,0,0,0,1.937l1.252,1.291a1.3,1.3,0,0,0,1.878,0l7.533-7.771a1.389,1.389,0,0,0,0-1.931Z" transform="translate(-95.95 46.828) rotate(-90)" fill="#fff"/>
</svg>
