<svg xmlns="http://www.w3.org/2000/svg" width="18.29" height="22.078" viewBox="0 0 18.29 22.078">
  <path id="angle-double-right-solid_1_" data-name="angle-double-right-solid (1)" d="M11.053,10.117,3.52,17.888a1.3,1.3,0,0,1-1.878,0L.39,16.6a1.4,1.4,0,0,1,0-1.937L5.73,9.151.39,3.643a1.4,1.4,0,0,1,0-1.937L1.637.4A1.3,1.3,0,0,1,3.514.4l7.533,7.771A1.4,1.4,0,0,1,11.053,10.117ZM21.687,8.174,14.154.4a1.3,1.3,0,0,0-1.878,0L11.025,1.694a1.4,1.4,0,0,0,0,1.937L16.364,9.14l-5.339,5.508a1.4,1.4,0,0,0,0,1.937l1.252,1.291a1.3,1.3,0,0,0,1.878,0l7.533-7.771a1.389,1.389,0,0,0,0-1.931Z" transform="translate(18.29) rotate(90)" fill="#fff"/>
</svg>
